[{
    "id":1,
    "name":"PSG",
    "country":"France"
    },
    {
    "id":2,
    "name":"Barcelone",
    "country":"Espagne"
    },
    {
    "id":3,
    "name":"Real Madrid",
    "country":"Espagne"
    },
    {
    "id":4,
    "name":"Milan",
    "country":"Italie"
    },
    {
    "id":5,
    "name":"OM",
    "country":"France"
    }
]