[
    {
        "id": 1,
        "idEquipe": 4,
        "nom": "AntoineDupont",
        "numero": 7,
        "poste": "Milieu de terrain"
    },
    {
        "id": 2,
        "idEquipe": 1,
        "nom": "Pierre Durand",
        "numero": 4,
        "poste": "Défenseur central"
    },
    {
        "id": 3,
        "idEquipe": 5,
        "nom": "Sophie Martin",
        "numero": 10,
        "poste": "Attaquant"
    },
    {
        "id": 4,
        "idEquipe": 2,
        "nom": "David Tremblay",
        "numero": 1,
        "poste": "Gardien de but"
    },
    {
        "id": 5,
        "idEquipe": 4,
        "nom": "farid",
        "numero": 11,
        "poste": "Ailier gauche"
    }

]